{
  "meta": {
    "limit": 20,
    "next": "/api/v1/product/?limit=20&format=json&offset=20",
    "offset": 0,
    "previous": null,
    "total_count": 5592
  },
  "objects": [
    {
      "age": "0.00",
      "bottles_per_case": 12,
      "code": "7758B",
      "created_at": "2012-09-24T00:00:28.897406",
      "description": "",
      "id": "1927",
      "modified_at": "2017-06-01T06:30:13.788162",
      "on_sale": false,
      "proof": "80.00",
      "resource_uri": "/api/v1/product/1927/",
      "size": "750 ML",
      "slug": "7758b",
      "status": "",
      "title": "100 Anos Anejo"
    },
    {
      "age": "0.00",
      "bottles_per_case": 6,
      "code": "8380H",
      "created_at": "2015-04-15T05:02:32.484529",
      "description": "",
      "id": "4948",
      "modified_at": "2017-06-01T06:30:13.800638",
      "on_sale": false,
      "proof": "0.00",
      "resource_uri": "/api/v1/product/4948/",
      "size": "1.75 L",
      "slug": "8380h",
      "status": "",
      "title": "100 Pipers"
    },
    {
      "age": "0.00",
      "bottles_per_case": 6,
      "code": "6233B",
      "created_at": "2012-09-24T00:00:18.757075",
      "description": "",
      "id": "1446",
      "modified_at": "2015-05-01T06:30:19.543400",
      "on_sale": false,
      "proof": "80.00",
      "resource_uri": "/api/v1/product/1446/",
      "size": "750 ML",
      "slug": "6233b",
      "status": "",
      "title": "10 Cane Rum"
    },
    {
      "age": "0.00",
      "bottles_per_case": 12,
      "code": "6404B",
      "created_at": "2012-09-24T00:02:52.412269",
      "description": "",
      "id": "2396",
      "modified_at": "2017-06-01T06:30:13.813786",
      "on_sale": false,
      "proof": "90.00",
      "resource_uri": "/api/v1/product/2396/",
      "size": "750 ML",
      "slug": "6404b",
      "status": "",
      "title": "12 Bridges Gin"
    },
    {
      "age": "0.00",
      "bottles_per_case": 10,
      "code": "3311F",
      "created_at": "2015-06-11T05:00:56.814086",
      "description": "",
      "id": "4996",
      "modified_at": "2017-06-01T06:30:13.822860",
      "on_sale": false,
      "proof": "0.00",
      "resource_uri": "/api/v1/product/4996/",
      "size": "50 ML",
      "slug": "3311f",
      "status": "$",
      "title": "12 Days Of Pearl (10 Variety Flavors)"
    },
    {
      "age": "8.00",
      "bottles_per_case": 6,
      "code": "6219B",
      "created_at": "2012-09-24T00:00:18.594419",
      "description": "",
      "id": "1437",
      "modified_at": "2017-06-01T06:30:13.835466",
      "on_sale": false,
      "proof": "93.70",
      "resource_uri": "/api/v1/product/1437/",
      "size": "750 ML",
      "slug": "6219b",
      "status": "",
      "title": "1792 Ridgemont Reserve"
    },
    {
      "age": "0.00",
      "bottles_per_case": 6,
      "code": "0882B",
      "created_at": "2012-09-24T00:00:02.590664",
      "description": "",
      "id": "715",
      "modified_at": "2017-06-01T06:30:13.848168",
      "on_sale": true,
      "proof": "80.00",
      "resource_uri": "/api/v1/product/715/",
      "size": "750 ML",
      "slug": "0882b",
      "status": "",
      "title": "1800 Anejo Tequila"
    },
    {
      "age": "0.00",
      "bottles_per_case": 6,
      "code": "1047H",
      "created_at": "2015-11-11T04:01:07.812137",
      "description": "",
      "id": "5089",
      "modified_at": "2017-06-01T06:30:13.907530",
      "on_sale": false,
      "proof": "0.00",
      "resource_uri": "/api/v1/product/5089/",
      "size": "1.75 L",
      "slug": "1047h",
      "status": "@",
      "title": "1800 Coconut Tequila"
    },
    {
      "age": "0.00",
      "bottles_per_case": 60,
      "code": "1047F",
      "created_at": "2012-09-24T00:00:06.430812",
      "description": "",
      "id": "888",
      "modified_at": "2017-06-01T06:30:13.883902",
      "on_sale": false,
      "proof": "70.00",
      "resource_uri": "/api/v1/product/888/",
      "size": "50 ML",
      "slug": "1047f",
      "status": "@",
      "title": "1800 Coconut Tequila"
    },
    {
      "age": "0.00",
      "bottles_per_case": 12,
      "code": "1047B",
      "created_at": "2012-09-24T00:00:06.417515",
      "description": "",
      "id": "887",
      "modified_at": "2017-06-01T06:30:13.860783",
      "on_sale": true,
      "proof": "70.00",
      "resource_uri": "/api/v1/product/887/",
      "size": "750 ML",
      "slug": "1047b",
      "status": "",
      "title": "1800 Coconut Tequila"
    },
    {
      "age": "0.00",
      "bottles_per_case": 12,
      "code": "1047E",
      "created_at": "2013-07-13T05:01:39.624469",
      "description": "",
      "id": "4072",
      "modified_at": "2016-08-01T06:30:22.944752",
      "on_sale": false,
      "proof": "0.00",
      "resource_uri": "/api/v1/product/4072/",
      "size": "375 ML",
      "slug": "1047e",
      "status": "",
      "title": "1800 Coconut Tequila"
    },
    {
      "age": "0.00",
      "bottles_per_case": 6,
      "code": "4287H",
      "created_at": "2017-02-28T04:01:17.485677",
      "description": "",
      "id": "5519",
      "modified_at": "2017-06-01T06:30:13.921740",
      "on_sale": false,
      "proof": "0.00",
      "resource_uri": "/api/v1/product/5519/",
      "size": "1.75 L",
      "slug": "4287h",
      "status": "@",
      "title": "1800 Jalapeno Lime"
    },
    {
      "age": "0.00",
      "bottles_per_case": 6,
      "code": "2905H",
      "created_at": "2015-01-27T04:00:53.090893",
      "description": "",
      "id": "4699",
      "modified_at": "2017-06-01T06:30:13.934251",
      "on_sale": false,
      "proof": "19.90",
      "resource_uri": "/api/v1/product/4699/",
      "size": "1.75 L",
      "slug": "2905h",
      "status": "@",
      "title": "1800 Peach Rtd"
    },
    {
      "age": "0.00",
      "bottles_per_case": 6,
      "code": "0924H",
      "created_at": "2012-09-24T00:00:03.892582",
      "description": "",
      "id": "781",
      "modified_at": "2017-06-01T06:30:13.973304",
      "on_sale": false,
      "proof": "80.00",
      "resource_uri": "/api/v1/product/781/",
      "size": "1.75 L",
      "slug": "0924h",
      "status": "",
      "title": "1800 Reposado Tequila"
    },
    {
      "age": "0.00",
      "bottles_per_case": 12,
      "code": "0924E",
      "created_at": "2012-09-24T00:00:03.879069",
      "description": "",
      "id": "780",
      "modified_at": "2017-06-01T06:30:13.960969",
      "on_sale": false,
      "proof": "80.00",
      "resource_uri": "/api/v1/product/780/",
      "size": "375 ML",
      "slug": "0924e",
      "status": "",
      "title": "1800 Reposado Tequila"
    },
    {
      "age": "0.00",
      "bottles_per_case": 12,
      "code": "0924B",
      "created_at": "2012-09-24T00:00:03.864990",
      "description": "",
      "id": "779",
      "modified_at": "2017-06-01T06:30:13.947081",
      "on_sale": true,
      "proof": "80.00",
      "resource_uri": "/api/v1/product/779/",
      "size": "750 ML",
      "slug": "0924b",
      "status": "",
      "title": "1800 Reposado Tequila"
    },
    {
      "age": "0.00",
      "bottles_per_case": 6,
      "code": "1139B",
      "created_at": "2012-09-24T00:00:07.500482",
      "description": "",
      "id": "957",
      "modified_at": "2017-06-01T06:30:13.986507",
      "on_sale": false,
      "proof": "80.00",
      "resource_uri": "/api/v1/product/957/",
      "size": "750 ML",
      "slug": "1139b",
      "status": "@",
      "title": "1800 Reposado W/pomegr Mix"
    },
    {
      "age": "0.00",
      "bottles_per_case": 12,
      "code": "6413E",
      "created_at": "2012-09-24T00:07:47.728992",
      "description": "",
      "id": "2519",
      "modified_at": "2017-06-01T06:30:13.999755",
      "on_sale": false,
      "proof": "100.00",
      "resource_uri": "/api/v1/product/2519/",
      "size": "375 ML",
      "slug": "6413e",
      "status": "",
      "title": "1800 Select Silver"
    },
    {
      "age": "0.00",
      "bottles_per_case": 12,
      "code": "6413B",
      "created_at": "2012-09-24T00:00:21.203219",
      "description": "",
      "id": "1557",
      "modified_at": "2016-08-01T06:30:23.026602",
      "on_sale": false,
      "proof": "100.00",
      "resource_uri": "/api/v1/product/1557/",
      "size": "750 ML",
      "slug": "6413b",
      "status": "",
      "title": "1800 Select Silver"
    },
    {
      "age": "0.00",
      "bottles_per_case": 12,
      "code": "6194E",
      "created_at": "2015-11-11T04:01:52.186919",
      "description": "",
      "id": "5111",
      "modified_at": "2017-06-01T06:30:14.019898",
      "on_sale": false,
      "proof": "0.00",
      "resource_uri": "/api/v1/product/5111/",
      "size": "375 ML",
      "slug": "6194e",
      "status": "@",
      "title": "1800 Silver"
    }
  ]
}